SPI/SIM/dd.vcd
$date
    Feb  3, 2023  12:48:52
$end
$version
    TOOL:	ncsim	10.20-s100
$end
$timescale
    1 ns
$end

$scope module top_tb $end
$var reg       1 !    clk  $end
$var reg       1 "    rstn  $end
$var reg       1 #    ss  $end
$var reg       1 $    sclk  $end
$var reg       1 %    mosi  $end
$var wire      1 &    miso  $end
$var integer  32 '    i  $end
$var reg       8 (    data_in [7:0] $end

$scope task drive_mosi $end
$var reg       8 )    data [7:0] $end
$upscope $end

$upscope $end

$enddefinitions $end
$dumpvars
0!
0"
1#
0$
0%
0&
bx '
b10101011 (
bx )
$end
#5
1!
1"
#10
0!
#15
1!
b10101011 )
0#
#20
0!
#25
1!
#30
0!
#35
1!
b0 '
1$
1%
#40
0!
#45
1!
#50
0!
#55
1!
0$
#60
0!
#65
1!
#70
0!
#75
1!
b1 '
1$
#80
0!
#85
1!
#90
0!
#95
1!
0$
#100
0!
#105
1!
#110
0!
#115
1!
b10 '
1$
0%
#120
0!
#125
1!
#130
0!
#135
1!
0$
#140
0!
#145
1!
#150
0!
#155
1!
b11 '
1$
1%
#160
0!
#165
1!
#170
0!
#175
1!
0$
#180
0!
#185
1!
#190
0!
#195
1!
b100 '
1$
0%
#200
0!
#205
1!
#210
0!
#215
1!
0$
#220
0!
#225
1!
#230
0!
#235
1!
b101 '
1$
1%
#240
0!
#245
1!
#250
0!
#255
1!
0$
#260
0!
#265
1!
#270
0!
#275
1!
b110 '
1$
0%
#280
0!
#285
1!
#290
0!
#295
1!
0$
#300
0!
#305
1!
#310
0!
#315
1!
b111 '
1$
1%
#320
0!
#325
1!
1&
#330
0!
#335
1!
0$
#340
0!
#345
1!
#350
0!
#355
1!
b1000 '
#360
0!
#365
1!
#370
0!
#375
1!
b11001101 )
#380
0!
#385
1!
#390
0!
#395
1!
b0 '
1$
#400
0!
#405
1!
#410
0!
#415
1!
0$
#420
0!
#425
1!
#430
0!
#435
1!
b1 '
1$
0%
#440
0!
#445
1!
0&
#450
0!
#455
1!
0$
#460
0!
#465
1!
#470
0!
#475
1!
b10 '
1$
1%
#480
0!
#485
1!
1&
#490
0!
#495
1!
0$
#500
0!
#505
1!
#510
0!
#515
1!
b11 '
1$
#520
0!
#525
1!
0&
#530
0!
#535
1!
0$
#540
0!
#545
1!
#550
0!
#555
1!
b100 '
1$
0%
#560
0!
#565
1!
1&
#570
0!
#575
1!
0$
#580
0!
#585
1!
#590
0!
#595
1!
b101 '
1$
#600
0!
#605
1!
0&
#610
0!
#615
1!
0$
#620
0!
#625
1!
#630
0!
#635
1!
b110 '
1$
1%
#640
0!
#645
1!
1&
#650
0!
#655
1!
0$
#660
0!
#665
1!
#670
0!
#675
1!
b111 '
1$
#680
0!
#685
1!
#690
0!
#695
1!
0$
#700
0!
#705
1!
#710
0!
#715
1!
b1000 '
